{"holder_name":"İLKO İLAÇ SANAYİ VETİCARET A.Ş.","holder_tpe_client_id":"330117","total_count":227,"page":1,"page_size":20,"total_pages":12,"trademarks":[{"id":"3ac48d68-be72-47d3-a2d9-4a12c6de9723","application_no":"2013/99801","name":"neuralfa","status":"Published","classes":[5],"application_date":"2013-12-06","registration_date":null,"image_path":null,"has_extracted_goods":false,"attorney_name":"İSMAİL SAFİ IŞIK","attorney_no":null,"registration_no":null,"bulletin_no":"223"},{"id":"a6509fe4-51a9-46d9-93ac-4c03218757a5","application_no":"2013/99799","name":"alfazan","status":"Registered","classes":[5],"application_date":"2013-12-06","registration_date":null,"image_path":"bulletins/Marka/GZ_435/images/2013_99799.jpg","has_extracted_goods":false,"attorney_name":"İSMAİL SAFİ IŞIK","attorney_no":"1689","registration_no":null,"bulletin_no":"223"},{"id":"1bf84d4f-27d7-462a-bfc7-d2f4691b73a8","application_no":"2013/99798","name":"sensomat","status":"Published","classes":[5],"application_date":"2013-12-06","registration_date":null,"image_path":null,"has_extracted_goods":false,"attorney_name":"İSMAİL SAFİ IŞIK","attorney_no":null,"registration_no":null,"bulletin_no":"223"},{"id":"9557504b-b859-4e58-9660-e1deb4a47026","application_no":"2013/99796","name":"nuralfa","status":"Published","classes":[5],"application_date":"2013-12-06","registration_date":null,"image_path":null,"has_extracted_goods":false,"attorney_name":"İSMAİL SAFİ IŞIK","attorney_no":null,"registration_no":null,"bulletin_no":"223"},{"id":"454ee4c0-7d98-4d0e-9380-5157cbcff94b","application_no":"2013/99788","name":"trantas","status":"Published","classes":[5],"application_date":"2013-12-06","registration_date":null,"image_path":null,"has_extracted_goods":false,"attorney_name":"İSMAİL SAFİ IŞIK","attorney_no":null,"registration_no":null,"bulletin_no":"223"},{"id":"4a9d7fa7-5d93-43d5-ba94-dd5f0c8ef403","application_no":"2013/99787","name":"corfren","status":"Registered","classes":[5],"application_date":"2013-12-06","registration_date":null,"image_path":"bulletins/Marka/GZ_436/images/2013_99787.jpg","has_extracted_goods":false,"attorney_name":"İSMAİL SAFİ IŞIK","attorney_no":"1689","registration_no":null,"bulletin_no":"223"},{"id":"8519253a-1e83-4e1a-a1a2-7aa8c67eb9de","application_no":"2013/99780","name":"midesafe","status":"Published","classes":[5],"application_date":"2013-12-06","registration_date":null,"image_path":null,"has_extracted_goods":false,"attorney_name":"İSMAİL SAFİ IŞIK","attorney_no":null,"registration_no":null,"bulletin_no":"223"},{"id":"861e6f11-2e67-47c3-9da0-d9495a963861","application_no":"2013/99772","name":"traxan","status":"Published","classes":[5],"application_date":"2013-12-06","registration_date":null,"image_path":null,"has_extracted_goods":false,"attorney_name":"İSMAİL SAFİ IŞIK","attorney_no":null,"registration_no":null,"bulletin_no":"223"},{"id":"39475068-83d9-4d42-b611-b7949de81254","application_no":"2013/99769","name":"farascer","status":"Published","classes":[5],"application_date":"2013-12-06","registration_date":null,"image_path":null,"has_extracted_goods":false,"attorney_name":"İSMAİL SAFİ IŞIK","attorney_no":null,"registration_no":null,"bulletin_no":"223"},{"id":"2813b3d6-360e-4b7b-a893-d6ad252d18f6","application_no":"2013/99767","name":"midelax","status":"Published","classes":[5],"application_date":"2013-12-06","registration_date":null,"image_path":null,"has_extracted_goods":false,"attorney_name":"İSMAİL SAFİ IŞIK","attorney_no":null,"registration_no":null,"bulletin_no":"223"},{"id":"a306db62-0c73-4b65-8b77-7b0d6d397b85","application_no":"2013/99763","name":"motufar","status":"Published","classes":[5],"application_date":"2013-12-06","registration_date":null,"image_path":null,"has_extracted_goods":false,"attorney_name":"İSMAİL SAFİ IŞIK","attorney_no":null,"registration_no":null,"bulletin_no":"223"},{"id":"7da86dc5-b681-4b03-adf0-5d340da08cbc","application_no":"2013/99762","name":"motefar","status":"Registered","classes":[5],"application_date":"2013-12-06","registration_date":null,"image_path":"bulletins/Marka/GZ_436/images/2013_99762.jpg","has_extracted_goods":false,"attorney_name":"İSMAİL SAFİ IŞIK","attorney_no":"1689","registration_no":null,"bulletin_no":"224"},{"id":"c95986d4-9aee-48c6-a1bb-b4c59053f687","application_no":"2013/99761","name":"saltınet","status":"Registered","classes":[5],"application_date":"2013-12-06","registration_date":null,"image_path":"bulletins/Marka/GZ_437/images/2013_99761.jpg","has_extracted_goods":false,"attorney_name":"İSMAİL SAFİ IŞIK","attorney_no":"1689","registration_no":null,"bulletin_no":"223"},{"id":"fc4d5e61-5693-45b2-9be4-3fd06a1b99b9","application_no":"2013/99760","name":"tforex","status":"Published","classes":[5],"application_date":"2013-12-06","registration_date":null,"image_path":null,"has_extracted_goods":false,"attorney_name":"İSMAİL SAFİ IŞIK","attorney_no":null,"registration_no":null,"bulletin_no":"223"},{"id":"ad97c969-8e55-4e7b-9fa7-8f959fa71bdd","application_no":"2013/99753","name":"pelvizet","status":"Published","classes":[5],"application_date":"2013-12-06","registration_date":null,"image_path":null,"has_extracted_goods":false,"attorney_name":"İSMAİL SAFİ IŞIK","attorney_no":null,"registration_no":null,"bulletin_no":"223"},{"id":"a22b2412-8282-48b6-9a03-fc5902904176","application_no":"2013/99750","name":"ilkofin","status":"Published","classes":[5],"application_date":"2013-12-06","registration_date":null,"image_path":null,"has_extracted_goods":false,"attorney_name":"İSMAİL SAFİ IŞIK","attorney_no":null,"registration_no":null,"bulletin_no":"223"},{"id":"027fd56f-8cd0-4c8b-aee7-358a478b98ef","application_no":"2013/99746","name":"morfelec","status":"Published","classes":[5],"application_date":"2013-12-06","registration_date":null,"image_path":null,"has_extracted_goods":false,"attorney_name":"İSMAİL SAFİ IŞIK","attorney_no":null,"registration_no":null,"bulletin_no":"223"},{"id":"62841a19-5cef-4ff4-b907-611209991fb4","application_no":"2013/36144","name":"eperan","status":"Published","classes":[5],"application_date":"2013-04-18","registration_date":null,"image_path":null,"has_extracted_goods":false,"attorney_name":"İSMAİL SAFİ IŞIK","attorney_no":null,"registration_no":null,"bulletin_no":"219"},{"id":"fb8404dc-4f1b-478a-8773-cd0c97f84c53","application_no":"2013/36136","name":"cortomal","status":"Registered","classes":[5],"application_date":"2013-04-18","registration_date":null,"image_path":"bulletins/Marka/GZ_436/images/2013_36136.jpg","has_extracted_goods":false,"attorney_name":"İSMAİL SAFİ IŞIK","attorney_no":"1689","registration_no":null,"bulletin_no":"218"},{"id":"196a0950-a171-4d13-8bc6-1f8e2d79bf8e","application_no":"2013/36130","name":"tecore","status":"Published","classes":[5],"application_date":"2013-04-18","registration_date":null,"image_path":null,"has_extracted_goods":false,"attorney_name":"İSMAİL SAFİ IŞIK ______________________________________________________________________________________________________________________ 2013/218 Resmi Marka Bülteni Türk Patent Enstitüsü Yayın Tarihi : 14.10.2013 2315","attorney_no":null,"registration_no":null,"bulletin_no":"218"}]}